
T07AC 000:625 SEGGER J-Link V5.10i Log File (0002ms, 0376ms total)
T07AC 000:625 DLL Compiled: Jan 28 2016 09:38:53 (0002ms, 0376ms total)
T07AC 000:625 Logging started @ 2016-02-01 12:07 (0002ms, 0376ms total)
T07AC 000:627 JLINK_SetWarnOutHandler(...) (0000ms, 0376ms total)
T07AC 000:628 JLINK_OpenEx(...)
Firmware: J-Link OB-SAM3U128-V2-NordicSemi compiled Jan 21 2016 17:58:20
Hardware: V1.00
S/N: 682913024  returns O.K. (0057ms, 0434ms total)
T07AC 000:686 JLINK_SetErrorOutHandler(...) (0000ms, 0435ms total)
T07AC 000:686 JLINK_ExecCommand("ProjectFile = "C:\work_n_git\band\nband_new_f\examples\ble_peripheral\ble_app_uart\pca10036\s132\arm5_no_packs\JLinkSettings.ini"", ...)  returns 0x00 (0006ms, 0441ms total)
T07AC 000:717 JLINK_ExecCommand("Device = nRF52832_xxAA", ...)Device "NRF52832_XXAA" selected.  returns 0x00 (0043ms, 0485ms total)
T07AC 000:764 JLINK_ExecCommand("DisableConnectionTimeout", ...)  returns 0x01 (0001ms, 0486ms total)
T07AC 000:765 JLINK_GetHardwareVersion()  returns 0x2710 (0000ms, 0486ms total)
T07AC 000:765 JLINK_GetDLLVersion()  returns 51009 (0000ms, 0486ms total)
T07AC 000:766 JLINK_GetFirmwareString(...) (0000ms, 0486ms total)
T07AC 000:852 JLINK_GetDLLVersion()  returns 51009 (0000ms, 0486ms total)
T07AC 000:852 JLINK_GetCompileDateTime() (0001ms, 0487ms total)
T07AC 000:872 JLINK_GetFirmwareString(...) (0000ms, 0487ms total)
T07AC 000:890 JLINK_GetHardwareVersion()  returns 0x2710 (0000ms, 0487ms total)
T07AC 000:937 JLINK_TIF_Select(JLINKARM_TIF_SWD)  returns 0x00 (0004ms, 0491ms total)
T07AC 000:942 JLINK_SetSpeed(5000) (0001ms, 0493ms total)
T07AC 000:943 JLINK_GetId() >0x108 TIF>Found SWD-DP with ID 0x2BA01477 >0x0D TIF> >0x28 TIF> >0x0D TIF> >0x28 TIF> >0x0D TIF> >0x28 TIF> >0x0D TIF> >0x28 TIF> >0x35 TIF> >0x0D TIF> >0x28 TIF> >0x0D TIF> >0x28 TIF> >0x35 TIF> >0x35 TIF> >0x35 TIF> >0x0D TIF> >0x28 TIF> >0x0D TIF> >0x28 TIF> >0x0D TIF> >0x28 TIF> >0x35 TIF> >0x35 TIF> >0x0D TIF> >0x28 TIF> >0x35 TIF> >0x35 TIF>Found Cortex-M4 r0p1, Little endian. -- CPU_ReadMem(4 bytes @ 0xE000EDF0) -- CPU_ReadMem(4 bytes @ 0xE0002000)
FPUnit: 6 code (BP) slots and 2 literal slots -- CPU_ReadMem(4 bytes @ 0xE000EDFC) -- CPU_ReadMem(4 bytes @ 0xE0001000) -- CPU_WriteMem(4 bytes @ 0xE0001000) -- CPU_ReadMem(4 bytes @ 0xE000ED88) -- CPU_WriteMem(4 bytes @ 0xE000ED88) -- CPU_ReadMem(4 bytes @ 0xE000ED88) -- CPU_WriteMem(4 bytes @ 0xE000ED88)CoreSight components:ROMTbl 0 @ E00FF000 -- CPU_ReadMem(16 bytes @ 0xE00FF000) -- CPU_ReadMem(16 bytes @ 0xE000EFF0) -- CPU_ReadMem(16 bytes @ 0xE000EFE0)
ROMTbl 0 [0]: FFF0F000, CID: B105E00D, PID: 000BB00C SCS -- CPU_ReadMem(16 bytes @ 0xE0001FF0) -- CPU_ReadMem(16 bytes @ 0xE0001FE0)ROMTbl 0 [1]: FFF02000, CID: B105E00D, PID: 003BB002 DWT -- CPU_ReadMem(16 bytes @ 0xE0002FF0) -- CPU_ReadMem(16 bytes @ 0xE0002FE0)ROMTbl 0 [2]: FFF03000, CID: B105E00D, PID: 002BB003 FPB -- CPU_ReadMem(16 bytes @ 0xE0000FF0) -- CPU_ReadMem(16 bytes @ 0xE0000FE0)ROMTbl 0 [3]: FFF01000, CID: B105E00D, PID: 003BB001 ITM -- CPU_ReadMem(16 bytes @ 0xE00FF010)
 -- CPU_ReadMem(16 bytes @ 0xE0040FF0) -- CPU_ReadMem(16 bytes @ 0xE0040FE0)ROMTbl 0 [4]: FFF41000, CID: B105900D, PID: 000BB9A1 TPIU -- CPU_ReadMem(16 bytes @ 0xE0041FF0) -- CPU_ReadMem(16 bytes @ 0xE0041FE0)ROMTbl 0 [5]: FFF42000, CID: B105900D, PID: 000BB925 ETM >0x35 TIF>  returns 0x2BA01477 (0185ms, 0678ms total)
T07AC 001:128 JLINK_GetDLLVersion()  returns 51009 (0000ms, 0678ms total)
T07AC 001:128 JLINK_CORE_GetFound()  returns 0xE0000FF (0000ms, 0678ms total)
T07AC 001:128 JLINK_GetDebugInfo(0x100) -- Value=0xE00FF000  returns 0x00 (0001ms, 0679ms total)
T07AC 001:144 JLINK_ReadMem (0xE00FF000, 0x0020 Bytes, ...) -- CPU is running -- CPU_ReadMem(32 bytes @ 0xE00FF000) - Data: 03 F0 F0 FF 03 20 F0 FF 03 30 F0 FF 03 10 F0 FF ...  returns 0x00 (0002ms, 0681ms total)
T07AC 001:146 JLINK_ReadMem (0xE000EFF0, 0x0010 Bytes, ...) -- CPU is running -- CPU_ReadMem(16 bytes @ 0xE000EFF0) - Data: 0D 00 00 00 E0 00 00 00 05 00 00 00 B1 00 00 00  returns 0x00 (0002ms, 0683ms total)
T07AC 001:148 JLINK_ReadMem (0xE000EFD0, 0x0020 Bytes, ...) -- CPU is running -- CPU_ReadMem(32 bytes @ 0xE000EFD0) - Data: 04 00 00 00 00 00 00 00 00 00 00 00 00 00 00 00 ...  returns 0x00 (0002ms, 0685ms total)
T07AC 001:151 JLINK_ReadMem (0xE0001FF0, 0x0010 Bytes, ...) -- CPU is running -- CPU_ReadMem(16 bytes @ 0xE0001FF0) - Data: 0D 00 00 00 E0 00 00 00 05 00 00 00 B1 00 00 00  returns 0x00 (0003ms, 0689ms total)
T07AC 001:154 JLINK_ReadMem (0xE0001FD0, 0x0020 Bytes, ...) -- CPU is running -- CPU_ReadMem(32 bytes @ 0xE0001FD0) - Data: 04 00 00 00 00 00 00 00 00 00 00 00 00 00 00 00 ...  returns 0x00 (0002ms, 0691ms total)
T07AC 001:157 JLINK_ReadMem (0xE0002FF0, 0x0010 Bytes, ...) -- CPU is running -- CPU_ReadMem(16 bytes @ 0xE0002FF0) - Data: 0D 00 00 00 E0 00 00 00 05 00 00 00 B1 00 00 00  returns 0x00 (0001ms, 0693ms total)
T07AC 001:159 JLINK_ReadMem (0xE0002FD0, 0x0020 Bytes, ...) -- CPU is running -- CPU_ReadMem(32 bytes @ 0xE0002FD0) - Data: 04 00 00 00 00 00 00 00 00 00 00 00 00 00 00 00 ...  returns 0x00 (0002ms, 0696ms total)
T07AC 001:161 JLINK_ReadMem (0xE0000FF0, 0x0010 Bytes, ...) -- CPU is running -- CPU_ReadMem(16 bytes @ 0xE0000FF0) - Data: 0D 00 00 00 E0 00 00 00 05 00 00 00 B1 00 00 00  returns 0x00 (0002ms, 0698ms total)
T07AC 001:163 JLINK_ReadMem (0xE0000FD0, 0x0020 Bytes, ...) -- CPU is running -- CPU_ReadMem(32 bytes @ 0xE0000FD0) - Data: 04 00 00 00 00 00 00 00 00 00 00 00 00 00 00 00 ...  returns 0x00 (0003ms, 0701ms total)
T07AC 001:167 JLINK_ReadMem (0xE0040FF0, 0x0010 Bytes, ...) -- CPU is running -- CPU_ReadMem(16 bytes @ 0xE0040FF0) - Data: 0D 00 00 00 90 00 00 00 05 00 00 00 B1 00 00 00  returns 0x00 (0001ms, 0703ms total)
T07AC 001:169 JLINK_ReadMem (0xE0040FD0, 0x0020 Bytes, ...) -- CPU is running -- CPU_ReadMem(32 bytes @ 0xE0040FD0) - Data: 04 00 00 00 00 00 00 00 00 00 00 00 00 00 00 00 ...  returns 0x00 (0001ms, 0705ms total)
T07AC 001:171 JLINK_ReadMem (0xE0041FF0, 0x0010 Bytes, ...) -- CPU is running -- CPU_ReadMem(16 bytes @ 0xE0041FF0) - Data: 0D 00 00 00 90 00 00 00 05 00 00 00 B1 00 00 00  returns 0x00 (0002ms, 0708ms total)
T07AC 001:173 JLINK_ReadMem (0xE0041FD0, 0x0020 Bytes, ...) -- CPU is running -- CPU_ReadMem(32 bytes @ 0xE0041FD0) - Data: 04 00 00 00 00 00 00 00 00 00 00 00 00 00 00 00 ...  returns 0x00 (0002ms, 0710ms total)
T07AC 001:175 JLINK_ReadMemU32(0xE000EF40, 0x0001 Items, ...) -- CPU is running -- CPU_ReadMem(4 bytes @ 0xE000EF40) - Data: 21 00 11 10  returns 0x01 (0003ms, 0713ms total)
T07AC 001:178 JLINK_ReadMemU32(0xE000EF44, 0x0001 Items, ...) -- CPU is running -- CPU_ReadMem(4 bytes @ 0xE000EF44) - Data: 11 00 00 11  returns 0x01 (0002ms, 0715ms total)
T07AC 001:180 JLINK_ReadMemU32(0xE000ED00, 0x0001 Items, ...) -- CPU is running -- CPU_ReadMem(4 bytes @ 0xE000ED00) - Data: 41 C2 0F 41  returns 0x01 (0002ms, 0717ms total)
T07AC 001:182 JLINK_SetResetType(JLINKARM_RESET_TYPE_NORMAL)  returns JLINKARM_RESET_TYPE_NORMAL (0000ms, 0717ms total)
T07AC 001:182 JLINK_Reset() -- CPU is running -- CPU_WriteMem(4 bytes @ 0xE000EDF0) -- CPU is running -- CPU_WriteMem(4 bytes @ 0xE000EDFC) >0x35 TIF> -- CPU is running -- CPU_WriteMem(4 bytes @ 0xE000ED0C) -- CPU is running -- CPU_ReadMem(4 bytes @ 0xE000EDF0) -- CPU is running -- CPU_ReadMem(4 bytes @ 0xE000EDF0) -- CPU is running -- CPU_WriteMem(4 bytes @ 0xE000EDF0) -- CPU is running -- CPU_WriteMem(4 bytes @ 0xE000EDFC) -- CPU is running -- CPU_ReadMem(4 bytes @ 0xE000EDF0)
 -- CPU_WriteMem(4 bytes @ 0xE0002000) -- CPU_ReadMem(4 bytes @ 0xE000EDFC) -- CPU_ReadMem(4 bytes @ 0xE0001000) (0030ms, 0747ms total)
T07AC 001:213 JLINK_Halt()  returns 0x00 (0000ms, 0747ms total)
T07AC 001:213 JLINK_IsHalted()  returns TRUE (0001ms, 0748ms total)
T07AC 001:214 JLINK_ReadMemU32(0xE000EDF0, 0x0001 Items, ...) -- CPU_ReadMem(4 bytes @ 0xE000EDF0) - Data: 03 00 03 00  returns 0x01 (0002ms, 0749ms total)
T07AC 001:216 JLINK_WriteU32(0xE000EDF0, 0xA05F0003) -- CPU_WriteMem(4 bytes @ 0xE000EDF0)  returns 0x00 (0002ms, 0751ms total)
T07AC 001:218 JLINK_WriteU32(0xE000EDFC, 0x01000000) -- CPU_WriteMem(4 bytes @ 0xE000EDFC)  returns 0x00 (0001ms, 0752ms total)
T07AC 001:333 JLINK_GetHWStatus(...)  returns 0x00 (0002ms, 0754ms total)
T07AC 001:388 JLINK_GetNumBPUnits(Type = 0xFFFFFF00)  returns 0x06 (0000ms, 0754ms total)
T07AC 001:388 JLINK_GetNumBPUnits(Type = 0xF0)  returns 0x2000 (0001ms, 0755ms total)
T07AC 001:389 JLINK_GetNumWPUnits()  returns 0x04 (0000ms, 0755ms total)
T07AC 001:457 JLINK_GetSpeed()  returns 0x3E8 (0000ms, 0755ms total)
T07AC 001:501 JLINK_ReadMemU32(0xE000E004, 0x0001 Items, ...) -- CPU_ReadMem(4 bytes @ 0xE000E004) - Data: 01 00 00 00  returns 0x01 (0002ms, 0757ms total)
T07AC 001:503 JLINK_ReadMemU32(0xE000E004, 0x0001 Items, ...) -- CPU_ReadMem(4 bytes @ 0xE000E004) - Data: 01 00 00 00  returns 0x01 (0002ms, 0759ms total)
T07AC 001:505 JLINK_WriteMem(0xE0001000, 0x001C Bytes, ...) - Data: 01 00 00 00 00 00 00 00 00 00 00 00 00 00 00 00 ... -- CPU_WriteMem(28 bytes @ 0xE0001000)  returns 0x1C (0006ms, 0765ms total)
T07AC 001:511 JLINK_ReadMem (0xE0001000, 0x001C Bytes, ...) -- CPU_ReadMem(28 bytes @ 0xE0001000) - Data: 01 00 00 40 00 00 00 00 00 00 00 00 00 00 00 00 ...  returns 0x00 (0003ms, 0768ms total)
T07AC 001:514 JLINK_Halt()  returns 0x00 (0000ms, 0768ms total)
T07AC 001:514 JLINK_IsHalted()  returns TRUE (0001ms, 0769ms total)
T07AC 001:541 JLINK_WriteMem(0x20000000, 0x01F4 Bytes, ...) - Data: 00 BE 0A E0 0D 78 2D 06 68 40 08 24 40 00 00 D3 ... -- CPU_WriteMem(500 bytes @ 0x20000000)  returns 0x1F4 (0012ms, 0780ms total)
T07AC 001:553 JLINK_WriteReg(R0, 0x00000000)  returns 0x00 (0000ms, 0780ms total)
T07AC 001:553 JLINK_WriteReg(R1, 0x03D09000)  returns 0x00 (0001ms, 0781ms total)
T07AC 001:554 JLINK_WriteReg(R2, 0x00000001)  returns 0x00 (0001ms, 0782ms total)
T07AC 001:555 JLINK_WriteReg(R3, 0x00000000)  returns 0x00 (0001ms, 0783ms total)
T07AC 001:556 JLINK_WriteReg(R4, 0x00000000)  returns 0x00 (0000ms, 0783ms total)
T07AC 001:556 JLINK_WriteReg(R5, 0x00000000)  returns 0x00 (0001ms, 0784ms total)
T07AC 001:557 JLINK_WriteReg(R6, 0x00000000)  returns 0x00 (0000ms, 0784ms total)
T07AC 001:557 JLINK_WriteReg(R7, 0x00000000)  returns 0x00 (0001ms, 0785ms total)
T07AC 001:558 JLINK_WriteReg(R8, 0x00000000)  returns 0x00 (0000ms, 0785ms total)
T07AC 001:558 JLINK_WriteReg(R9, 0x200001F0)  returns 0x00 (0001ms, 0786ms total)
T07AC 001:559 JLINK_WriteReg(R10, 0x00000000)  returns 0x00 (0000ms, 0786ms total)
T07AC 001:559 JLINK_WriteReg(R11, 0x00000000)  returns 0x00 (0001ms, 0787ms total)
T07AC 001:560 JLINK_WriteReg(R12, 0x00000000)  returns 0x00 (0000ms, 0787ms total)
T07AC 001:560 JLINK_WriteReg(R13 (SP), 0x20002000)  returns 0x00 (0001ms, 0788ms total)
T07AC 001:561 JLINK_WriteReg(R14, 0x20000001)  returns 0x00 (0000ms, 0788ms total)
T07AC 001:561 JLINK_WriteReg(R15 (PC), 0x20000028)  returns 0x00 (0001ms, 0789ms total)
T07AC 001:562 JLINK_WriteReg(XPSR, 0x01000000)  returns 0x00 (0000ms, 0789ms total)
T07AC 001:562 JLINK_WriteReg(MSP, 0x20002000)  returns 0x00 (0001ms, 0790ms total)
T07AC 001:563 JLINK_WriteReg(PSP, 0x20002000)  returns 0x00 (0001ms, 0791ms total)
T07AC 001:564 JLINK_WriteReg(CFBP, 0x00000000)  returns 0x00 (0000ms, 0791ms total)
T07AC 001:564 JLINK_SetBPEx(Addr = 0x20000000, Type = 0xFFFFFFF2) -- CPU_ReadMem(2 bytes @ 0x20000000)  returns 0x00000001 (0004ms, 0795ms total)
T07AC 001:569 JLINK_Go() -- CPU_WriteMem(2 bytes @ 0x20000000) -- CPU_ReadMem(4 bytes @ 0xE0001000) -- CPU_WriteMem(4 bytes @ 0xE0002008) -- CPU_WriteMem(4 bytes @ 0xE000200C) -- CPU_WriteMem(4 bytes @ 0xE0002010) -- CPU_WriteMem(4 bytes @ 0xE0002014) -- CPU_WriteMem(4 bytes @ 0xE0002018) -- CPU_WriteMem(4 bytes @ 0xE000201C) -- CPU_WriteMem(4 bytes @ 0xE0001004) (0012ms, 0808ms total)
T07AC 001:581 JLINK_IsHalted() -- CPU_ReadMem(2 bytes @ 0x20000000)  returns TRUE (0011ms, 0819ms total)
T07AC 001:592 JLINK_ReadReg(R15 (PC))  returns 0x20000000 (0001ms, 0809ms total)
T07AC 001:593 JLINK_ClrBPEx(BPHandle = 0x00000001)  returns 0x00 (0000ms, 0809ms total)
T07AC 001:593 JLINK_ReadReg(R0)  returns 0x00000000 (0001ms, 0810ms total)
T07AC 001:595 JLINK_WriteReg(R0, 0x0001F000)  returns 0x00 (0000ms, 0810ms total)
T07AC 001:596 JLINK_WriteReg(R1, 0x00001000)  returns 0x00 (0000ms, 0811ms total)
T07AC 001:596 JLINK_WriteReg(R2, 0x000000FF)  returns 0x00 (0000ms, 0811ms total)
T07AC 001:597 JLINK_WriteReg(R3, 0x00000000)  returns 0x00 (0000ms, 0812ms total)
T07AC 001:597 JLINK_WriteReg(R4, 0x00000000)  returns 0x00 (0000ms, 0812ms total)
T07AC 001:598 JLINK_WriteReg(R5, 0x00000000)  returns 0x00 (0000ms, 0813ms total)
T07AC 001:598 JLINK_WriteReg(R6, 0x00000000)  returns 0x00 (0001ms, 0814ms total)
T07AC 001:599 JLINK_WriteReg(R7, 0x00000000)  returns 0x00 (0000ms, 0814ms total)
T07AC 001:599 JLINK_WriteReg(R8, 0x00000000)  returns 0x00 (0001ms, 0815ms total)
T07AC 001:600 JLINK_WriteReg(R9, 0x200001F0)  returns 0x00 (0000ms, 0815ms total)
T07AC 001:600 JLINK_WriteReg(R10, 0x00000000)  returns 0x00 (0001ms, 0816ms total)
T07AC 001:601 JLINK_WriteReg(R11, 0x00000000)  returns 0x00 (0000ms, 0816ms total)
T07AC 001:601 JLINK_WriteReg(R12, 0x00000000)  returns 0x00 (0000ms, 0816ms total)
T07AC 001:601 JLINK_WriteReg(R13 (SP), 0x20002000)  returns 0x00 (0001ms, 0817ms total)
T07AC 001:602 JLINK_WriteReg(R14, 0x20000001)  returns 0x00 (0000ms, 0817ms total)
T07AC 001:602 JLINK_WriteReg(R15 (PC), 0x200000E4)  returns 0x00 (0000ms, 0817ms total)
T07AC 001:602 JLINK_WriteReg(XPSR, 0x01000000)  returns 0x00 (0001ms, 0818ms total)
T07AC 001:603 JLINK_WriteReg(MSP, 0x20002000)  returns 0x00 (0000ms, 0818ms total)
T07AC 001:603 JLINK_WriteReg(PSP, 0x20002000)  returns 0x00 (0000ms, 0818ms total)
T07AC 001:604 JLINK_WriteReg(CFBP, 0x00000000)  returns 0x00 (0000ms, 0819ms total)
T07AC 001:604 JLINK_SetBPEx(Addr = 0x20000000, Type = 0xFFFFFFF2)  returns 0x00000002 (0000ms, 0819ms total)
T07AC 001:604 JLINK_Go() -- CPU_ReadMem(4 bytes @ 0xE0001000) (0007ms, 0826ms total)
T07AC 001:611 JLINK_IsHalted() -- CPU_ReadMem(2 bytes @ 0x20000000)  returns TRUE (0010ms, 0836ms total)
T07AC 001:621 JLINK_ReadReg(R15 (PC))  returns 0x20000000 (0001ms, 0827ms total)
T07AC 001:622 JLINK_ClrBPEx(BPHandle = 0x00000002)  returns 0x00 (0000ms, 0827ms total)
T07AC 001:622 JLINK_ReadReg(R0)  returns 0x00000001 (0001ms, 0828ms total)
T07AC 001:623 JLINK_WriteReg(R0, 0x0001F000)  returns 0x00 (0000ms, 0828ms total)
T07AC 001:623 JLINK_WriteReg(R1, 0x00001000)  returns 0x00 (0001ms, 0829ms total)
T07AC 001:624 JLINK_WriteReg(R2, 0x000000FF)  returns 0x00 (0000ms, 0829ms total)
T07AC 001:624 JLINK_WriteReg(R3, 0x00000000)  returns 0x00 (0000ms, 0829ms total)
T07AC 001:624 JLINK_WriteReg(R4, 0x00000000)  returns 0x00 (0001ms, 0830ms total)
T07AC 001:625 JLINK_WriteReg(R5, 0x00000000)  returns 0x00 (0000ms, 0830ms total)
T07AC 001:625 JLINK_WriteReg(R6, 0x00000000)  returns 0x00 (0000ms, 0830ms total)
T07AC 001:626 JLINK_WriteReg(R7, 0x00000000)  returns 0x00 (0000ms, 0831ms total)
T07AC 001:626 JLINK_WriteReg(R8, 0x00000000)  returns 0x00 (0000ms, 0831ms total)
T07AC 001:626 JLINK_WriteReg(R9, 0x200001F0)  returns 0x00 (0001ms, 0832ms total)
T07AC 001:627 JLINK_WriteReg(R10, 0x00000000)  returns 0x00 (0000ms, 0832ms total)
T07AC 001:627 JLINK_WriteReg(R11, 0x00000000)  returns 0x00 (0001ms, 0833ms total)
T07AC 001:628 JLINK_WriteReg(R12, 0x00000000)  returns 0x00 (0000ms, 0833ms total)
T07AC 001:628 JLINK_WriteReg(R13 (SP), 0x20002000)  returns 0x00 (0001ms, 0834ms total)
T07AC 001:629 JLINK_WriteReg(R14, 0x20000001)  returns 0x00 (0000ms, 0834ms total)
T07AC 001:630 JLINK_WriteReg(R15 (PC), 0x200000A2)  returns 0x00 (0000ms, 0835ms total)
T07AC 001:630 JLINK_WriteReg(XPSR, 0x01000000)  returns 0x00 (0001ms, 0836ms total)
T07AC 001:631 JLINK_WriteReg(MSP, 0x20002000)  returns 0x00 (0000ms, 0836ms total)
T07AC 001:631 JLINK_WriteReg(PSP, 0x20002000)  returns 0x00 (0001ms, 0837ms total)
T07AC 001:632 JLINK_WriteReg(CFBP, 0x00000000)  returns 0x00 (0000ms, 0837ms total)
T07AC 001:632 JLINK_SetBPEx(Addr = 0x20000000, Type = 0xFFFFFFF2)  returns 0x00000003 (0002ms, 0839ms total)
T07AC 001:634 JLINK_Go() -- CPU_ReadMem(4 bytes @ 0xE0001000) (0005ms, 0844ms total)
T07AC 001:639 JLINK_IsHalted()  returns FALSE (0002ms, 0846ms total)
T07AC 002:121 JLINK_IsHalted() -- CPU_ReadMem(2 bytes @ 0x20000000)  returns TRUE (0009ms, 0853ms total)
T07AC 002:130 JLINK_ReadReg(R15 (PC))  returns 0x20000000 (0000ms, 0844ms total)
T07AC 002:130 JLINK_ClrBPEx(BPHandle = 0x00000003)  returns 0x00 (0000ms, 0844ms total)
T07AC 002:131 JLINK_ReadReg(R0)  returns 0x00000000 (0000ms, 0845ms total)
T07AC 002:136 JLINK_WriteReg(R0, 0x00020000)  returns 0x00 (0000ms, 0845ms total)
T07AC 002:136 JLINK_WriteReg(R1, 0x00001000)  returns 0x00 (0000ms, 0845ms total)
T07AC 002:136 JLINK_WriteReg(R2, 0x000000FF)  returns 0x00 (0000ms, 0845ms total)
T07AC 002:136 JLINK_WriteReg(R3, 0x00000000)  returns 0x00 (0001ms, 0846ms total)
T07AC 002:137 JLINK_WriteReg(R4, 0x00000000)  returns 0x00 (0000ms, 0846ms total)
T07AC 002:137 JLINK_WriteReg(R5, 0x00000000)  returns 0x00 (0000ms, 0846ms total)
T07AC 002:138 JLINK_WriteReg(R6, 0x00000000)  returns 0x00 (0000ms, 0847ms total)
T07AC 002:138 JLINK_WriteReg(R7, 0x00000000)  returns 0x00 (0000ms, 0847ms total)
T07AC 002:138 JLINK_WriteReg(R8, 0x00000000)  returns 0x00 (0001ms, 0848ms total)
T07AC 002:139 JLINK_WriteReg(R9, 0x200001F0)  returns 0x00 (0000ms, 0848ms total)
T07AC 002:139 JLINK_WriteReg(R10, 0x00000000)  returns 0x00 (0000ms, 0848ms total)
T07AC 002:140 JLINK_WriteReg(R11, 0x00000000)  returns 0x00 (0000ms, 0849ms total)
T07AC 002:140 JLINK_WriteReg(R12, 0x00000000)  returns 0x00 (0000ms, 0849ms total)
T07AC 002:140 JLINK_WriteReg(R13 (SP), 0x20002000)  returns 0x00 (0001ms, 0850ms total)
T07AC 002:141 JLINK_WriteReg(R14, 0x20000001)  returns 0x00 (0000ms, 0850ms total)
T07AC 002:141 JLINK_WriteReg(R15 (PC), 0x200000E4)  returns 0x00 (0001ms, 0851ms total)
T07AC 002:142 JLINK_WriteReg(XPSR, 0x01000000)  returns 0x00 (0000ms, 0851ms total)
T07AC 002:142 JLINK_WriteReg(MSP, 0x20002000)  returns 0x00 (0000ms, 0851ms total)
T07AC 002:142 JLINK_WriteReg(PSP, 0x20002000)  returns 0x00 (0001ms, 0852ms total)
T07AC 002:143 JLINK_WriteReg(CFBP, 0x00000000)  returns 0x00 (0000ms, 0852ms total)
T07AC 002:143 JLINK_SetBPEx(Addr = 0x20000000, Type = 0xFFFFFFF2)  returns 0x00000004 (0000ms, 0852ms total)
T07AC 002:143 JLINK_Go() -- CPU_ReadMem(4 bytes @ 0xE0001000) (0011ms, 0863ms total)
T07AC 002:154 JLINK_IsHalted() -- CPU_ReadMem(2 bytes @ 0x20000000)  returns TRUE (0014ms, 0877ms total)
T07AC 002:168 JLINK_ReadReg(R15 (PC))  returns 0x20000000 (0001ms, 0864ms total)
T07AC 002:169 JLINK_ClrBPEx(BPHandle = 0x00000004)  returns 0x00 (0000ms, 0864ms total)
T07AC 002:169 JLINK_ReadReg(R0)  returns 0x00000001 (0001ms, 0865ms total)
T07AC 002:170 JLINK_WriteReg(R0, 0x00020000)  returns 0x00 (0000ms, 0865ms total)
T07AC 002:170 JLINK_WriteReg(R1, 0x00001000)  returns 0x00 (0000ms, 0865ms total)
T07AC 002:170 JLINK_WriteReg(R2, 0x000000FF)  returns 0x00 (0001ms, 0866ms total)
T07AC 002:171 JLINK_WriteReg(R3, 0x00000000)  returns 0x00 (0000ms, 0866ms total)
T07AC 002:171 JLINK_WriteReg(R4, 0x00000000)  returns 0x00 (0000ms, 0866ms total)
T07AC 002:171 JLINK_WriteReg(R5, 0x00000000)  returns 0x00 (0001ms, 0867ms total)
T07AC 002:172 JLINK_WriteReg(R6, 0x00000000)  returns 0x00 (0000ms, 0867ms total)
T07AC 002:172 JLINK_WriteReg(R7, 0x00000000)  returns 0x00 (0000ms, 0867ms total)
T07AC 002:173 JLINK_WriteReg(R8, 0x00000000)  returns 0x00 (0000ms, 0868ms total)
T07AC 002:173 JLINK_WriteReg(R9, 0x200001F0)  returns 0x00 (0000ms, 0868ms total)
T07AC 002:173 JLINK_WriteReg(R10, 0x00000000)  returns 0x00 (0001ms, 0869ms total)
T07AC 002:174 JLINK_WriteReg(R11, 0x00000000)  returns 0x00 (0000ms, 0869ms total)
T07AC 002:174 JLINK_WriteReg(R12, 0x00000000)  returns 0x00 (0001ms, 0870ms total)
T07AC 002:175 JLINK_WriteReg(R13 (SP), 0x20002000)  returns 0x00 (0000ms, 0870ms total)
T07AC 002:175 JLINK_WriteReg(R14, 0x20000001)  returns 0x00 (0000ms, 0870ms total)
T07AC 002:175 JLINK_WriteReg(R15 (PC), 0x200000A2)  returns 0x00 (0001ms, 0871ms total)
T07AC 002:176 JLINK_WriteReg(XPSR, 0x01000000)  returns 0x00 (0000ms, 0871ms total)
T07AC 002:176 JLINK_WriteReg(MSP, 0x20002000)  returns 0x00 (0000ms, 0871ms total)
T07AC 002:177 JLINK_WriteReg(PSP, 0x20002000)  returns 0x00 (0000ms, 0872ms total)
T07AC 002:177 JLINK_WriteReg(CFBP, 0x00000000)  returns 0x00 (0000ms, 0872ms total)
T07AC 002:177 JLINK_SetBPEx(Addr = 0x20000000, Type = 0xFFFFFFF2)  returns 0x00000005 (0001ms, 0873ms total)
T07AC 002:178 JLINK_Go() -- CPU_ReadMem(4 bytes @ 0xE0001000) (0008ms, 0881ms total)
T07AC 002:186 JLINK_IsHalted() -- CPU_ReadMem(2 bytes @ 0x20000000)  returns TRUE (0011ms, 0892ms total)
T07AC 002:199 JLINK_ReadReg(R15 (PC))  returns 0x20000000 (0001ms, 0882ms total)
T07AC 002:200 JLINK_ClrBPEx(BPHandle = 0x00000005)  returns 0x00 (0000ms, 0882ms total)
T07AC 002:200 JLINK_ReadReg(R0)  returns 0x00000000 (0001ms, 0883ms total)
T07AC 002:202 JLINK_WriteReg(R0, 0x00021000)  returns 0x00 (0000ms, 0883ms total)
T07AC 002:202 JLINK_WriteReg(R1, 0x00001000)  returns 0x00 (0001ms, 0884ms total)
T07AC 002:203 JLINK_WriteReg(R2, 0x000000FF)  returns 0x00 (0000ms, 0884ms total)
T07AC 002:203 JLINK_WriteReg(R3, 0x00000000)  returns 0x00 (0000ms, 0884ms total)
T07AC 002:203 JLINK_WriteReg(R4, 0x00000000)  returns 0x00 (0000ms, 0884ms total)
T07AC 002:203 JLINK_WriteReg(R5, 0x00000000)  returns 0x00 (0001ms, 0885ms total)
T07AC 002:204 JLINK_WriteReg(R6, 0x00000000)  returns 0x00 (0000ms, 0885ms total)
T07AC 002:204 JLINK_WriteReg(R7, 0x00000000)  returns 0x00 (0000ms, 0885ms total)
T07AC 002:204 JLINK_WriteReg(R8, 0x00000000)  returns 0x00 (0000ms, 0885ms total)
T07AC 002:204 JLINK_WriteReg(R9, 0x200001F0)  returns 0x00 (0001ms, 0886ms total)
T07AC 002:205 JLINK_WriteReg(R10, 0x00000000)  returns 0x00 (0000ms, 0886ms total)
T07AC 002:205 JLINK_WriteReg(R11, 0x00000000)  returns 0x00 (0000ms, 0886ms total)
T07AC 002:205 JLINK_WriteReg(R12, 0x00000000)  returns 0x00 (0000ms, 0886ms total)
T07AC 002:205 JLINK_WriteReg(R13 (SP), 0x20002000)  returns 0x00 (0001ms, 0887ms total)
T07AC 002:206 JLINK_WriteReg(R14, 0x20000001)  returns 0x00 (0000ms, 0887ms total)
T07AC 002:206 JLINK_WriteReg(R15 (PC), 0x200000E4)  returns 0x00 (0000ms, 0887ms total)
T07AC 002:206 JLINK_WriteReg(XPSR, 0x01000000)  returns 0x00 (0000ms, 0887ms total)
T07AC 002:206 JLINK_WriteReg(MSP, 0x20002000)  returns 0x00 (0001ms, 0888ms total)
T07AC 002:207 JLINK_WriteReg(PSP, 0x20002000)  returns 0x00 (0000ms, 0888ms total)
T07AC 002:207 JLINK_WriteReg(CFBP, 0x00000000)  returns 0x00 (0001ms, 0889ms total)
T07AC 002:208 JLINK_SetBPEx(Addr = 0x20000000, Type = 0xFFFFFFF2)  returns 0x00000006 (0000ms, 0889ms total)
T07AC 002:208 JLINK_Go() -- CPU_ReadMem(4 bytes @ 0xE0001000) (0005ms, 0894ms total)
T07AC 002:213 JLINK_IsHalted() -- CPU_ReadMem(2 bytes @ 0x20000000)  returns TRUE (0010ms, 0904ms total)
T07AC 002:223 JLINK_ReadReg(R15 (PC))  returns 0x20000000 (0000ms, 0894ms total)
T07AC 002:223 JLINK_ClrBPEx(BPHandle = 0x00000006)  returns 0x00 (0001ms, 0895ms total)
T07AC 002:224 JLINK_ReadReg(R0)  returns 0x00000001 (0000ms, 0895ms total)
T07AC 002:224 JLINK_WriteReg(R0, 0x00021000)  returns 0x00 (0000ms, 0895ms total)
T07AC 002:224 JLINK_WriteReg(R1, 0x00001000)  returns 0x00 (0001ms, 0896ms total)
T07AC 002:225 JLINK_WriteReg(R2, 0x000000FF)  returns 0x00 (0000ms, 0896ms total)
T07AC 002:225 JLINK_WriteReg(R3, 0x00000000)  returns 0x00 (0000ms, 0896ms total)
T07AC 002:225 JLINK_WriteReg(R4, 0x00000000)  returns 0x00 (0001ms, 0897ms total)
T07AC 002:226 JLINK_WriteReg(R5, 0x00000000)  returns 0x00 (0000ms, 0897ms total)
T07AC 002:226 JLINK_WriteReg(R6, 0x00000000)  returns 0x00 (0000ms, 0897ms total)
T07AC 002:226 JLINK_WriteReg(R7, 0x00000000)  returns 0x00 (0001ms, 0898ms total)
T07AC 002:227 JLINK_WriteReg(R8, 0x00000000)  returns 0x00 (0000ms, 0898ms total)
T07AC 002:227 JLINK_WriteReg(R9, 0x200001F0)  returns 0x00 (0000ms, 0898ms total)
T07AC 002:227 JLINK_WriteReg(R10, 0x00000000)  returns 0x00 (0001ms, 0899ms total)
T07AC 002:228 JLINK_WriteReg(R11, 0x00000000)  returns 0x00 (0000ms, 0899ms total)
T07AC 002:228 JLINK_WriteReg(R12, 0x00000000)  returns 0x00 (0000ms, 0899ms total)
T07AC 002:228 JLINK_WriteReg(R13 (SP), 0x20002000)  returns 0x00 (0001ms, 0900ms total)
T07AC 002:229 JLINK_WriteReg(R14, 0x20000001)  returns 0x00 (0000ms, 0900ms total)
T07AC 002:229 JLINK_WriteReg(R15 (PC), 0x200000A2)  returns 0x00 (0001ms, 0901ms total)
T07AC 002:230 JLINK_WriteReg(XPSR, 0x01000000)  returns 0x00 (0000ms, 0901ms total)
T07AC 002:230 JLINK_WriteReg(MSP, 0x20002000)  returns 0x00 (0000ms, 0901ms total)
T07AC 002:231 JLINK_WriteReg(PSP, 0x20002000)  returns 0x00 (0000ms, 0902ms total)
T07AC 002:231 JLINK_WriteReg(CFBP, 0x00000000)  returns 0x00 (0000ms, 0902ms total)
T07AC 002:231 JLINK_SetBPEx(Addr = 0x20000000, Type = 0xFFFFFFF2)  returns 0x00000007 (0001ms, 0903ms total)
T07AC 002:232 JLINK_Go() -- CPU_ReadMem(4 bytes @ 0xE0001000) (0004ms, 0907ms total)
T07AC 002:236 JLINK_IsHalted() -- CPU_ReadMem(2 bytes @ 0x20000000)  returns TRUE (0010ms, 0917ms total)
T07AC 002:246 JLINK_ReadReg(R15 (PC))  returns 0x20000000 (0000ms, 0907ms total)
T07AC 002:246 JLINK_ClrBPEx(BPHandle = 0x00000007)  returns 0x00 (0001ms, 0908ms total)
T07AC 002:247 JLINK_ReadReg(R0)  returns 0x00000000 (0000ms, 0908ms total)
T07AC 002:249 JLINK_WriteReg(R0, 0x00022000)  returns 0x00 (0000ms, 0908ms total)
T07AC 002:249 JLINK_WriteReg(R1, 0x00001000)  returns 0x00 (0001ms, 0909ms total)
T07AC 002:250 JLINK_WriteReg(R2, 0x000000FF)  returns 0x00 (0000ms, 0909ms total)
T07AC 002:250 JLINK_WriteReg(R3, 0x00000000)  returns 0x00 (0000ms, 0909ms total)
T07AC 002:250 JLINK_WriteReg(R4, 0x00000000)  returns 0x00 (0001ms, 0910ms total)
T07AC 002:251 JLINK_WriteReg(R5, 0x00000000)  returns 0x00 (0000ms, 0910ms total)
T07AC 002:251 JLINK_WriteReg(R6, 0x00000000)  returns 0x00 (0001ms, 0911ms total)
T07AC 002:252 JLINK_WriteReg(R7, 0x00000000)  returns 0x00 (0000ms, 0911ms total)
T07AC 002:252 JLINK_WriteReg(R8, 0x00000000)  returns 0x00 (0000ms, 0911ms total)
T07AC 002:253 JLINK_WriteReg(R9, 0x200001F0)  returns 0x00 (0000ms, 0912ms total)
T07AC 002:253 JLINK_WriteReg(R10, 0x00000000)  returns 0x00 (0000ms, 0912ms total)
T07AC 002:253 JLINK_WriteReg(R11, 0x00000000)  returns 0x00 (0001ms, 0913ms total)
T07AC 002:254 JLINK_WriteReg(R12, 0x00000000)  returns 0x00 (0001ms, 0914ms total)
T07AC 002:255 JLINK_WriteReg(R13 (SP), 0x20002000)  returns 0x00 (0001ms, 0915ms total)
T07AC 002:256 JLINK_WriteReg(R14, 0x20000001)  returns 0x00 (0000ms, 0915ms total)
T07AC 002:256 JLINK_WriteReg(R15 (PC), 0x200000E4)  returns 0x00 (0001ms, 0916ms total)
T07AC 002:257 JLINK_WriteReg(XPSR, 0x01000000)  returns 0x00 (0000ms, 0916ms total)
T07AC 002:257 JLINK_WriteReg(MSP, 0x20002000)  returns 0x00 (0001ms, 0917ms total)
T07AC 002:258 JLINK_WriteReg(PSP, 0x20002000)  returns 0x00 (0000ms, 0917ms total)
T07AC 002:258 JLINK_WriteReg(CFBP, 0x00000000)  returns 0x00 (0000ms, 0917ms total)
T07AC 002:258 JLINK_SetBPEx(Addr = 0x20000000, Type = 0xFFFFFFF2)  returns 0x00000008 (0001ms, 0918ms total)
T07AC 002:259 JLINK_Go() -- CPU_ReadMem(4 bytes @ 0xE0001000) (0006ms, 0924ms total)
T07AC 002:265 JLINK_IsHalted() -- CPU_ReadMem(2 bytes @ 0x20000000)  returns TRUE (0009ms, 0933ms total)
T07AC 002:275 JLINK_ReadReg(R15 (PC))  returns 0x20000000 (0000ms, 0924ms total)
T07AC 002:275 JLINK_ClrBPEx(BPHandle = 0x00000008)  returns 0x00 (0001ms, 0925ms total)
T07AC 002:276 JLINK_ReadReg(R0)  returns 0x00000001 (0000ms, 0925ms total)
T07AC 002:276 JLINK_WriteReg(R0, 0x00022000)  returns 0x00 (0001ms, 0926ms total)
T07AC 002:277 JLINK_WriteReg(R1, 0x00001000)  returns 0x00 (0000ms, 0926ms total)
T07AC 002:277 JLINK_WriteReg(R2, 0x000000FF)  returns 0x00 (0000ms, 0926ms total)
T07AC 002:277 JLINK_WriteReg(R3, 0x00000000)  returns 0x00 (0001ms, 0927ms total)
T07AC 002:278 JLINK_WriteReg(R4, 0x00000000)  returns 0x00 (0000ms, 0927ms total)
T07AC 002:278 JLINK_WriteReg(R5, 0x00000000)  returns 0x00 (0000ms, 0927ms total)
T07AC 002:278 JLINK_WriteReg(R6, 0x00000000)  returns 0x00 (0000ms, 0927ms total)
T07AC 002:279 JLINK_WriteReg(R7, 0x00000000)  returns 0x00 (0000ms, 0928ms total)
T07AC 002:279 JLINK_WriteReg(R8, 0x00000000)  returns 0x00 (0000ms, 0928ms total)
T07AC 002:279 JLINK_WriteReg(R9, 0x200001F0)  returns 0x00 (0000ms, 0928ms total)
T07AC 002:279 JLINK_WriteReg(R10, 0x00000000)  returns 0x00 (0001ms, 0929ms total)
T07AC 002:280 JLINK_WriteReg(R11, 0x00000000)  returns 0x00 (0000ms, 0929ms total)
T07AC 002:280 JLINK_WriteReg(R12, 0x00000000)  returns 0x00 (0000ms, 0929ms total)
T07AC 002:280 JLINK_WriteReg(R13 (SP), 0x20002000)  returns 0x00 (0000ms, 0929ms total)
T07AC 002:281 JLINK_WriteReg(R14, 0x20000001)  returns 0x00 (0000ms, 0930ms total)
T07AC 002:281 JLINK_WriteReg(R15 (PC), 0x200000A2)  returns 0x00 (0000ms, 0930ms total)
T07AC 002:281 JLINK_WriteReg(XPSR, 0x01000000)  returns 0x00 (0000ms, 0930ms total)
T07AC 002:281 JLINK_WriteReg(MSP, 0x20002000)  returns 0x00 (0000ms, 0930ms total)
T07AC 002:281 JLINK_WriteReg(PSP, 0x20002000)  returns 0x00 (0001ms, 0931ms total)
T07AC 002:282 JLINK_WriteReg(CFBP, 0x00000000)  returns 0x00 (0000ms, 0931ms total)
T07AC 002:282 JLINK_SetBPEx(Addr = 0x20000000, Type = 0xFFFFFFF2)  returns 0x00000009 (0000ms, 0931ms total)
T07AC 002:282 JLINK_Go() -- CPU_ReadMem(4 bytes @ 0xE0001000) (0004ms, 0935ms total)
T07AC 002:286 JLINK_IsHalted() -- CPU_ReadMem(2 bytes @ 0x20000000)  returns TRUE (0010ms, 0945ms total)
T07AC 002:296 JLINK_ReadReg(R15 (PC))  returns 0x20000000 (0001ms, 0936ms total)
T07AC 002:297 JLINK_ClrBPEx(BPHandle = 0x00000009)  returns 0x00 (0000ms, 0936ms total)
T07AC 002:297 JLINK_ReadReg(R0)  returns 0x00000000 (0000ms, 0936ms total)
T07AC 002:298 JLINK_WriteReg(R0, 0x00000001)  returns 0x00 (0001ms, 0937ms total)
T07AC 002:299 JLINK_WriteReg(R1, 0x00001000)  returns 0x00 (0000ms, 0937ms total)
T07AC 002:299 JLINK_WriteReg(R2, 0x000000FF)  returns 0x00 (0000ms, 0937ms total)
T07AC 002:299 JLINK_WriteReg(R3, 0x00000000)  returns 0x00 (0001ms, 0938ms total)
T07AC 002:300 JLINK_WriteReg(R4, 0x00000000)  returns 0x00 (0000ms, 0938ms total)
T07AC 002:300 JLINK_WriteReg(R5, 0x00000000)  returns 0x00 (0001ms, 0939ms total)
T07AC 002:301 JLINK_WriteReg(R6, 0x00000000)  returns 0x00 (0000ms, 0939ms total)
T07AC 002:301 JLINK_WriteReg(R7, 0x00000000)  returns 0x00 (0001ms, 0940ms total)
T07AC 002:302 JLINK_WriteReg(R8, 0x00000000)  returns 0x00 (0000ms, 0940ms total)
T07AC 002:302 JLINK_WriteReg(R9, 0x200001F0)  returns 0x00 (0000ms, 0940ms total)
T07AC 002:302 JLINK_WriteReg(R10, 0x00000000)  returns 0x00 (0001ms, 0941ms total)
T07AC 002:303 JLINK_WriteReg(R11, 0x00000000)  returns 0x00 (0000ms, 0941ms total)
T07AC 002:303 JLINK_WriteReg(R12, 0x00000000)  returns 0x00 (0001ms, 0942ms total)
T07AC 002:304 JLINK_WriteReg(R13 (SP), 0x20002000)  returns 0x00 (0000ms, 0942ms total)
T07AC 002:304 JLINK_WriteReg(R14, 0x20000001)  returns 0x00 (0000ms, 0942ms total)
T07AC 002:304 JLINK_WriteReg(R15 (PC), 0x20000058)  returns 0x00 (0001ms, 0943ms total)
T07AC 002:305 JLINK_WriteReg(XPSR, 0x01000000)  returns 0x00 (0000ms, 0943ms total)
T07AC 002:305 JLINK_WriteReg(MSP, 0x20002000)  returns 0x00 (0000ms, 0943ms total)
T07AC 002:305 JLINK_WriteReg(PSP, 0x20002000)  returns 0x00 (0000ms, 0943ms total)
T07AC 002:306 JLINK_WriteReg(CFBP, 0x00000000)  returns 0x00 (0000ms, 0944ms total)
T07AC 002:306 JLINK_SetBPEx(Addr = 0x20000000, Type = 0xFFFFFFF2)  returns 0x0000000A (0000ms, 0944ms total)
T07AC 002:306 JLINK_Go() -- CPU_ReadMem(4 bytes @ 0xE0001000) (0006ms, 0950ms total)
T07AC 002:312 JLINK_IsHalted() -- CPU_ReadMem(2 bytes @ 0x20000000)  returns TRUE (0010ms, 0960ms total)
T07AC 002:322 JLINK_ReadReg(R15 (PC))  returns 0x20000000 (0001ms, 0951ms total)
T07AC 002:323 JLINK_ClrBPEx(BPHandle = 0x0000000A)  returns 0x00 (0000ms, 0951ms total)
T07AC 002:323 JLINK_ReadReg(R0)  returns 0x00000000 (0001ms, 0952ms total)
T07AC 002:450 JLINK_WriteMem(0x20000000, 0x01F4 Bytes, ...) - Data: 00 BE 0A E0 0D 78 2D 06 68 40 08 24 40 00 00 D3 ... -- CPU_WriteMem(500 bytes @ 0x20000000)  returns 0x1F4 (0010ms, 0962ms total)
T07AC 002:460 JLINK_WriteReg(R0, 0x00000000)  returns 0x00 (0001ms, 0963ms total)
T07AC 002:461 JLINK_WriteReg(R1, 0x03D09000)  returns 0x00 (0001ms, 0964ms total)
T07AC 002:462 JLINK_WriteReg(R2, 0x00000002)  returns 0x00 (0001ms, 0965ms total)
T07AC 002:463 JLINK_WriteReg(R3, 0x00000000)  returns 0x00 (0000ms, 0965ms total)
T07AC 002:463 JLINK_WriteReg(R4, 0x00000000)  returns 0x00 (0001ms, 0966ms total)
T07AC 002:464 JLINK_WriteReg(R5, 0x00000000)  returns 0x00 (0000ms, 0966ms total)
T07AC 002:464 JLINK_WriteReg(R6, 0x00000000)  returns 0x00 (0000ms, 0966ms total)
T07AC 002:464 JLINK_WriteReg(R7, 0x00000000)  returns 0x00 (0001ms, 0967ms total)
T07AC 002:465 JLINK_WriteReg(R8, 0x00000000)  returns 0x00 (0000ms, 0967ms total)
T07AC 002:465 JLINK_WriteReg(R9, 0x200001F0)  returns 0x00 (0001ms, 0968ms total)
T07AC 002:466 JLINK_WriteReg(R10, 0x00000000)  returns 0x00 (0000ms, 0968ms total)
T07AC 002:466 JLINK_WriteReg(R11, 0x00000000)  returns 0x00 (0000ms, 0968ms total)
T07AC 002:466 JLINK_WriteReg(R12, 0x00000000)  returns 0x00 (0001ms, 0969ms total)
T07AC 002:467 JLINK_WriteReg(R13 (SP), 0x20002000)  returns 0x00 (0000ms, 0969ms total)
T07AC 002:467 JLINK_WriteReg(R14, 0x20000001)  returns 0x00 (0000ms, 0969ms total)
T07AC 002:468 JLINK_WriteReg(R15 (PC), 0x20000028)  returns 0x00 (0000ms, 0970ms total)
T07AC 002:468 JLINK_WriteReg(XPSR, 0x01000000)  returns 0x00 (0000ms, 0970ms total)
T07AC 002:468 JLINK_WriteReg(MSP, 0x20002000)  returns 0x00 (0001ms, 0971ms total)
T07AC 002:469 JLINK_WriteReg(PSP, 0x20002000)  returns 0x00 (0000ms, 0971ms total)
T07AC 002:469 JLINK_WriteReg(CFBP, 0x00000000)  returns 0x00 (0000ms, 0971ms total)
T07AC 002:469 JLINK_SetBPEx(Addr = 0x20000000, Type = 0xFFFFFFF2) -- CPU_ReadMem(2 bytes @ 0x20000000)  returns 0x0000000B (0010ms, 0981ms total)
T07AC 002:480 JLINK_Go() -- CPU_WriteMem(2 bytes @ 0x20000000) -- CPU_ReadMem(4 bytes @ 0xE0001000) (0006ms, 0988ms total)
T07AC 002:486 JLINK_IsHalted() -- CPU_ReadMem(2 bytes @ 0x20000000)  returns TRUE (0018ms, 1006ms total)
T07AC 002:505 JLINK_ReadReg(R15 (PC))  returns 0x20000000 (0000ms, 0988ms total)
T07AC 002:505 JLINK_ClrBPEx(BPHandle = 0x0000000B)  returns 0x00 (0000ms, 0988ms total)
T07AC 002:505 JLINK_ReadReg(R0)  returns 0x00000000 (0001ms, 0989ms total)
T07AC 002:507 JLINK_WriteMem(0x200001F4, 0x0E0C Bytes, ...) - Data: 20 54 00 20 8D F4 01 00 95 F4 01 00 97 F4 01 00 ... -- CPU_WriteMem(3596 bytes @ 0x200001F4)  returns 0xE0C (0049ms, 1038ms total)
T07AC 002:557 JLINK_WriteMem(0x20001000, 0x01F4 Bytes, ...) - Data: FA D1 70 47 70 47 00 20 01 E0 01 C1 12 1F 00 2A ... -- CPU_WriteMem(500 bytes @ 0x20001000)  returns 0x1F4 (0008ms, 1046ms total)
T07AC 002:565 JLINK_WriteReg(R0, 0x0001F000)  returns 0x00 (0001ms, 1047ms total)
T07AC 002:566 JLINK_WriteReg(R1, 0x00001000)  returns 0x00 (0000ms, 1047ms total)
T07AC 002:566 JLINK_WriteReg(R2, 0x200001F4)  returns 0x00 (0000ms, 1047ms total)
T07AC 002:566 JLINK_WriteReg(R3, 0x00000000)  returns 0x00 (0001ms, 1048ms total)
T07AC 002:567 JLINK_WriteReg(R4, 0x00000000)  returns 0x00 (0000ms, 1048ms total)
T07AC 002:567 JLINK_WriteReg(R5, 0x00000000)  returns 0x00 (0000ms, 1048ms total)
T07AC 002:567 JLINK_WriteReg(R6, 0x00000000)  returns 0x00 (0001ms, 1049ms total)
T07AC 002:568 JLINK_WriteReg(R7, 0x00000000)  returns 0x00 (0000ms, 1049ms total)
T07AC 002:568 JLINK_WriteReg(R8, 0x00000000)  returns 0x00 (0000ms, 1049ms total)
T07AC 002:568 JLINK_WriteReg(R9, 0x200001F0)  returns 0x00 (0001ms, 1050ms total)
T07AC 002:569 JLINK_WriteReg(R10, 0x00000000)  returns 0x00 (0000ms, 1050ms total)
T07AC 002:569 JLINK_WriteReg(R11, 0x00000000)  returns 0x00 (0000ms, 1050ms total)
T07AC 002:569 JLINK_WriteReg(R12, 0x00000000)  returns 0x00 (0001ms, 1051ms total)
T07AC 002:570 JLINK_WriteReg(R13 (SP), 0x20002000)  returns 0x00 (0000ms, 1051ms total)
T07AC 002:570 JLINK_WriteReg(R14, 0x20000001)  returns 0x00 (0000ms, 1051ms total)
T07AC 002:570 JLINK_WriteReg(R15 (PC), 0x20000120)  returns 0x00 (0001ms, 1052ms total)
T07AC 002:571 JLINK_WriteReg(XPSR, 0x01000000)  returns 0x00 (0000ms, 1052ms total)
T07AC 002:571 JLINK_WriteReg(MSP, 0x20002000)  returns 0x00 (0000ms, 1052ms total)
T07AC 002:571 JLINK_WriteReg(PSP, 0x20002000)  returns 0x00 (0001ms, 1053ms total)
T07AC 002:572 JLINK_WriteReg(CFBP, 0x00000000)  returns 0x00 (0000ms, 1053ms total)
T07AC 002:572 JLINK_SetBPEx(Addr = 0x20000000, Type = 0xFFFFFFF2)  returns 0x0000000C (0000ms, 1053ms total)
T07AC 002:572 JLINK_Go() -- CPU_ReadMem(4 bytes @ 0xE0001000) (0005ms, 1058ms total)
T07AC 002:577 JLINK_IsHalted()  returns FALSE (0002ms, 1060ms total)
T07AC 003:166 JLINK_IsHalted() -- CPU_ReadMem(2 bytes @ 0x20000000)  returns TRUE (0008ms, 1066ms total)
T07AC 003:174 JLINK_ReadReg(R15 (PC))  returns 0x20000000 (0000ms, 1058ms total)
T07AC 003:174 JLINK_ClrBPEx(BPHandle = 0x0000000C)  returns 0x00 (0000ms, 1058ms total)
T07AC 003:174 JLINK_ReadReg(R0)  returns 0x00000000 (0001ms, 1059ms total)
T07AC 003:176 JLINK_WriteMem(0x200001F4, 0x0E0C Bytes, ...) - Data: 38 46 01 F0 47 FE 05 00 C7 D1 38 78 38 B1 33 46 ... -- CPU_WriteMem(3596 bytes @ 0x200001F4)  returns 0xE0C (0049ms, 1108ms total)
T07AC 003:225 JLINK_WriteMem(0x20001000, 0x01F4 Bytes, ...) - Data: 04 E0 4F F4 F0 11 21 60 2E 60 07 70 10 46 BD E8 ... -- CPU_WriteMem(500 bytes @ 0x20001000)  returns 0x1F4 (0008ms, 1116ms total)
T07AC 003:233 JLINK_WriteReg(R0, 0x00020000)  returns 0x00 (0001ms, 1117ms total)
T07AC 003:234 JLINK_WriteReg(R1, 0x00001000)  returns 0x00 (0000ms, 1117ms total)
T07AC 003:234 JLINK_WriteReg(R2, 0x200001F4)  returns 0x00 (0000ms, 1117ms total)
T07AC 003:234 JLINK_WriteReg(R3, 0x00000000)  returns 0x00 (0001ms, 1118ms total)
T07AC 003:235 JLINK_WriteReg(R4, 0x00000000)  returns 0x00 (0000ms, 1118ms total)
T07AC 003:235 JLINK_WriteReg(R5, 0x00000000)  returns 0x00 (0000ms, 1118ms total)
T07AC 003:235 JLINK_WriteReg(R6, 0x00000000)  returns 0x00 (0000ms, 1118ms total)
T07AC 003:235 JLINK_WriteReg(R7, 0x00000000)  returns 0x00 (0002ms, 1120ms total)
T07AC 003:237 JLINK_WriteReg(R8, 0x00000000)  returns 0x00 (0000ms, 1120ms total)
T07AC 003:237 JLINK_WriteReg(R9, 0x200001F0)  returns 0x00 (0000ms, 1120ms total)
T07AC 003:237 JLINK_WriteReg(R10, 0x00000000)  returns 0x00 (0000ms, 1120ms total)
T07AC 003:238 JLINK_WriteReg(R11, 0x00000000)  returns 0x00 (0000ms, 1121ms total)
T07AC 003:238 JLINK_WriteReg(R12, 0x00000000)  returns 0x00 (0000ms, 1121ms total)
T07AC 003:238 JLINK_WriteReg(R13 (SP), 0x20002000)  returns 0x00 (0000ms, 1121ms total)
T07AC 003:238 JLINK_WriteReg(R14, 0x20000001)  returns 0x00 (0000ms, 1121ms total)
T07AC 003:238 JLINK_WriteReg(R15 (PC), 0x20000120)  returns 0x00 (0001ms, 1122ms total)
T07AC 003:239 JLINK_WriteReg(XPSR, 0x01000000)  returns 0x00 (0000ms, 1122ms total)
T07AC 003:239 JLINK_WriteReg(MSP, 0x20002000)  returns 0x00 (0000ms, 1122ms total)
T07AC 003:239 JLINK_WriteReg(PSP, 0x20002000)  returns 0x00 (0000ms, 1122ms total)
T07AC 003:239 JLINK_WriteReg(CFBP, 0x00000000)  returns 0x00 (0000ms, 1122ms total)
T07AC 003:239 JLINK_SetBPEx(Addr = 0x20000000, Type = 0xFFFFFFF2)  returns 0x0000000D (0001ms, 1123ms total)
T07AC 003:240 JLINK_Go() -- CPU_ReadMem(4 bytes @ 0xE0001000) (0005ms, 1128ms total)
T07AC 003:245 JLINK_IsHalted()  returns FALSE (0001ms, 1129ms total)
T07AC 003:516 JLINK_IsHalted() -- CPU_ReadMem(2 bytes @ 0x20000000)  returns TRUE (0008ms, 1136ms total)
T07AC 003:524 JLINK_ReadReg(R15 (PC))  returns 0x20000000 (0000ms, 1128ms total)
T07AC 003:524 JLINK_ClrBPEx(BPHandle = 0x0000000D)  returns 0x00 (0001ms, 1129ms total)
T07AC 003:525 JLINK_ReadReg(R0)  returns 0x00000000 (0000ms, 1129ms total)
T07AC 003:526 JLINK_WriteMem(0x200001F4, 0x0E0C Bytes, ...) - Data: 01 D0 81 42 F3 D8 05 20 E8 55 20 88 12 21 40 1C ... -- CPU_WriteMem(3596 bytes @ 0x200001F4)  returns 0xE0C (0050ms, 1179ms total)
T07AC 003:576 JLINK_WriteMem(0x20001000, 0x01F4 Bytes, ...) - Data: 70 B5 1C 4B 1A 69 9C 68 15 46 11 46 07 E0 81 42 ... -- CPU_WriteMem(500 bytes @ 0x20001000)  returns 0x1F4 (0008ms, 1187ms total)
T07AC 003:584 JLINK_WriteReg(R0, 0x00021000)  returns 0x00 (0000ms, 1187ms total)
T07AC 003:584 JLINK_WriteReg(R1, 0x00001000)  returns 0x00 (0000ms, 1187ms total)
T07AC 003:584 JLINK_WriteReg(R2, 0x200001F4)  returns 0x00 (0001ms, 1188ms total)
T07AC 003:585 JLINK_WriteReg(R3, 0x00000000)  returns 0x00 (0000ms, 1188ms total)
T07AC 003:585 JLINK_WriteReg(R4, 0x00000000)  returns 0x00 (0000ms, 1188ms total)
T07AC 003:585 JLINK_WriteReg(R5, 0x00000000)  returns 0x00 (0001ms, 1189ms total)
T07AC 003:586 JLINK_WriteReg(R6, 0x00000000)  returns 0x00 (0000ms, 1189ms total)
T07AC 003:586 JLINK_WriteReg(R7, 0x00000000)  returns 0x00 (0000ms, 1189ms total)
T07AC 003:586 JLINK_WriteReg(R8, 0x00000000)  returns 0x00 (0001ms, 1190ms total)
T07AC 003:587 JLINK_WriteReg(R9, 0x200001F0)  returns 0x00 (0000ms, 1190ms total)
T07AC 003:587 JLINK_WriteReg(R10, 0x00000000)  returns 0x00 (0000ms, 1190ms total)
T07AC 003:587 JLINK_WriteReg(R11, 0x00000000)  returns 0x00 (0001ms, 1191ms total)
T07AC 003:588 JLINK_WriteReg(R12, 0x00000000)  returns 0x00 (0000ms, 1191ms total)
T07AC 003:588 JLINK_WriteReg(R13 (SP), 0x20002000)  returns 0x00 (0000ms, 1191ms total)
T07AC 003:588 JLINK_WriteReg(R14, 0x20000001)  returns 0x00 (0001ms, 1192ms total)
T07AC 003:589 JLINK_WriteReg(R15 (PC), 0x20000120)  returns 0x00 (0000ms, 1192ms total)
T07AC 003:589 JLINK_WriteReg(XPSR, 0x01000000)  returns 0x00 (0000ms, 1192ms total)
T07AC 003:589 JLINK_WriteReg(MSP, 0x20002000)  returns 0x00 (0000ms, 1192ms total)
T07AC 003:590 JLINK_WriteReg(PSP, 0x20002000)  returns 0x00 (0000ms, 1193ms total)
T07AC 003:590 JLINK_WriteReg(CFBP, 0x00000000)  returns 0x00 (0000ms, 1193ms total)
T07AC 003:590 JLINK_SetBPEx(Addr = 0x20000000, Type = 0xFFFFFFF2)  returns 0x0000000E (0000ms, 1193ms total)
T07AC 003:591 JLINK_Go() -- CPU_ReadMem(4 bytes @ 0xE0001000) (0004ms, 1198ms total)
T07AC 003:596 JLINK_IsHalted()  returns FALSE (0001ms, 1200ms total)
T07AC 003:876 JLINK_IsHalted() -- CPU_ReadMem(2 bytes @ 0x20000000)  returns TRUE (0008ms, 1207ms total)
T07AC 003:884 JLINK_ReadReg(R15 (PC))  returns 0x20000000 (0000ms, 1199ms total)
T07AC 003:885 JLINK_ClrBPEx(BPHandle = 0x0000000E)  returns 0x00 (0000ms, 1200ms total)
T07AC 003:885 JLINK_ReadReg(R0)  returns 0x00000000 (0000ms, 1200ms total)
T07AC 003:887 JLINK_WriteMem(0x200001F4, 0x0E0C Bytes, ...) - Data: 01 B1 88 47 61 69 00 29 03 D0 8D F8 00 50 68 46 ... -- CPU_WriteMem(3596 bytes @ 0x200001F4)  returns 0xE0C (0049ms, 1249ms total)
T07AC 003:936 JLINK_WriteMem(0x20001000, 0x01F4 Bytes, ...) - Data: FF FF FF FF FF FF FF FF FF FF FF FF FF FF FF FF ... -- CPU_WriteMem(500 bytes @ 0x20001000)  returns 0x1F4 (0008ms, 1257ms total)
T07AC 003:944 JLINK_WriteReg(R0, 0x00022000)  returns 0x00 (0001ms, 1258ms total)
T07AC 003:945 JLINK_WriteReg(R1, 0x0000021C)  returns 0x00 (0000ms, 1258ms total)
T07AC 003:945 JLINK_WriteReg(R2, 0x200001F4)  returns 0x00 (0000ms, 1258ms total)
T07AC 003:945 JLINK_WriteReg(R3, 0x00000000)  returns 0x00 (0000ms, 1258ms total)
T07AC 003:945 JLINK_WriteReg(R4, 0x00000000)  returns 0x00 (0001ms, 1259ms total)
T07AC 003:946 JLINK_WriteReg(R5, 0x00000000)  returns 0x00 (0000ms, 1259ms total)
T07AC 003:946 JLINK_WriteReg(R6, 0x00000000)  returns 0x00 (0000ms, 1259ms total)
T07AC 003:946 JLINK_WriteReg(R7, 0x00000000)  returns 0x00 (0000ms, 1259ms total)
T07AC 003:946 JLINK_WriteReg(R8, 0x00000000)  returns 0x00 (0000ms, 1259ms total)
T07AC 003:947 JLINK_WriteReg(R9, 0x200001F0)  returns 0x00 (0000ms, 1260ms total)
T07AC 003:947 JLINK_WriteReg(R10, 0x00000000)  returns 0x00 (0000ms, 1260ms total)
T07AC 003:947 JLINK_WriteReg(R11, 0x00000000)  returns 0x00 (0000ms, 1260ms total)
T07AC 003:947 JLINK_WriteReg(R12, 0x00000000)  returns 0x00 (0000ms, 1260ms total)
T07AC 003:947 JLINK_WriteReg(R13 (SP), 0x20002000)  returns 0x00 (0000ms, 1260ms total)
T07AC 003:947 JLINK_WriteReg(R14, 0x20000001)  returns 0x00 (0001ms, 1261ms total)
T07AC 003:948 JLINK_WriteReg(R15 (PC), 0x20000120)  returns 0x00 (0000ms, 1261ms total)
T07AC 003:948 JLINK_WriteReg(XPSR, 0x01000000)  returns 0x00 (0000ms, 1261ms total)
T07AC 003:948 JLINK_WriteReg(MSP, 0x20002000)  returns 0x00 (0000ms, 1261ms total)
T07AC 003:949 JLINK_WriteReg(PSP, 0x20002000)  returns 0x00 (0000ms, 1262ms total)
T07AC 003:949 JLINK_WriteReg(CFBP, 0x00000000)  returns 0x00 (0000ms, 1262ms total)
T07AC 003:949 JLINK_SetBPEx(Addr = 0x20000000, Type = 0xFFFFFFF2)  returns 0x0000000F (0000ms, 1262ms total)
T07AC 003:949 JLINK_Go() -- CPU_ReadMem(4 bytes @ 0xE0001000) (0005ms, 1267ms total)
T07AC 003:954 JLINK_IsHalted()  returns FALSE (0001ms, 1268ms total)
T07AC 004:188 JLINK_IsHalted() -- CPU_ReadMem(2 bytes @ 0x20000000)  returns TRUE (0008ms, 1275ms total)
T07AC 004:196 JLINK_ReadReg(R15 (PC))  returns 0x20000000 (0000ms, 1267ms total)
T07AC 004:196 JLINK_ClrBPEx(BPHandle = 0x0000000F)  returns 0x00 (0001ms, 1268ms total)
T07AC 004:197 JLINK_ReadReg(R0)  returns 0x00000000 (0000ms, 1268ms total)
T07AC 004:197 JLINK_WriteReg(R0, 0x00000002)  returns 0x00 (0000ms, 1268ms total)
T07AC 004:197 JLINK_WriteReg(R1, 0x0000021C)  returns 0x00 (0000ms, 1268ms total)
T07AC 004:197 JLINK_WriteReg(R2, 0x200001F4)  returns 0x00 (0000ms, 1268ms total)
T07AC 004:197 JLINK_WriteReg(R3, 0x00000000)  returns 0x00 (0001ms, 1269ms total)
T07AC 004:198 JLINK_WriteReg(R4, 0x00000000)  returns 0x00 (0000ms, 1269ms total)
T07AC 004:198 JLINK_WriteReg(R5, 0x00000000)  returns 0x00 (0000ms, 1269ms total)
T07AC 004:198 JLINK_WriteReg(R6, 0x00000000)  returns 0x00 (0000ms, 1269ms total)
T07AC 004:198 JLINK_WriteReg(R7, 0x00000000)  returns 0x00 (0000ms, 1269ms total)
T07AC 004:198 JLINK_WriteReg(R8, 0x00000000)  returns 0x00 (0001ms, 1270ms total)
T07AC 004:199 JLINK_WriteReg(R9, 0x200001F0)  returns 0x00 (0000ms, 1270ms total)
T07AC 004:199 JLINK_WriteReg(R10, 0x00000000)  returns 0x00 (0000ms, 1270ms total)
T07AC 004:199 JLINK_WriteReg(R11, 0x00000000)  returns 0x00 (0000ms, 1270ms total)
T07AC 004:199 JLINK_WriteReg(R12, 0x00000000)  returns 0x00 (0000ms, 1270ms total)
T07AC 004:199 JLINK_WriteReg(R13 (SP), 0x20002000)  returns 0x00 (0000ms, 1270ms total)
T07AC 004:200 JLINK_WriteReg(R14, 0x20000001)  returns 0x00 (0000ms, 1271ms total)
T07AC 004:200 JLINK_WriteReg(R15 (PC), 0x20000058)  returns 0x00 (0000ms, 1271ms total)
T07AC 004:200 JLINK_WriteReg(XPSR, 0x01000000)  returns 0x00 (0000ms, 1271ms total)
T07AC 004:200 JLINK_WriteReg(MSP, 0x20002000)  returns 0x00 (0000ms, 1271ms total)
T07AC 004:200 JLINK_WriteReg(PSP, 0x20002000)  returns 0x00 (0000ms, 1271ms total)
T07AC 004:200 JLINK_WriteReg(CFBP, 0x00000000)  returns 0x00 (0001ms, 1272ms total)
T07AC 004:201 JLINK_SetBPEx(Addr = 0x20000000, Type = 0xFFFFFFF2)  returns 0x00000010 (0000ms, 1272ms total)
T07AC 004:201 JLINK_Go() -- CPU_ReadMem(4 bytes @ 0xE0001000) (0004ms, 1276ms total)
T07AC 004:206 JLINK_IsHalted() -- CPU_ReadMem(2 bytes @ 0x20000000)  returns TRUE (0008ms, 1285ms total)
T07AC 004:214 JLINK_ReadReg(R15 (PC))  returns 0x20000000 (0000ms, 1277ms total)
T07AC 004:214 JLINK_ClrBPEx(BPHandle = 0x00000010)  returns 0x00 (0001ms, 1278ms total)
T07AC 004:215 JLINK_ReadReg(R0)  returns 0x00000000 (0000ms, 1278ms total)
T07AC 004:285 JLINK_WriteMem(0x20000000, 0x01F4 Bytes, ...) - Data: 00 BE 0A E0 0D 78 2D 06 68 40 08 24 40 00 00 D3 ... -- CPU_WriteMem(500 bytes @ 0x20000000)  returns 0x1F4 (0008ms, 1286ms total)
T07AC 004:293 JLINK_WriteReg(R0, 0x00000000)  returns 0x00 (0001ms, 1287ms total)
T07AC 004:294 JLINK_WriteReg(R1, 0x03D09000)  returns 0x00 (0000ms, 1287ms total)
T07AC 004:294 JLINK_WriteReg(R2, 0x00000003)  returns 0x00 (0000ms, 1287ms total)
T07AC 004:294 JLINK_WriteReg(R3, 0x00000000)  returns 0x00 (0000ms, 1287ms total)
T07AC 004:294 JLINK_WriteReg(R4, 0x00000000)  returns 0x00 (0000ms, 1287ms total)
T07AC 004:294 JLINK_WriteReg(R5, 0x00000000)  returns 0x00 (0001ms, 1288ms total)
T07AC 004:295 JLINK_WriteReg(R6, 0x00000000)  returns 0x00 (0000ms, 1288ms total)
T07AC 004:295 JLINK_WriteReg(R7, 0x00000000)  returns 0x00 (0000ms, 1288ms total)
T07AC 004:295 JLINK_WriteReg(R8, 0x00000000)  returns 0x00 (0000ms, 1288ms total)
T07AC 004:295 JLINK_WriteReg(R9, 0x200001F0)  returns 0x00 (0000ms, 1288ms total)
T07AC 004:295 JLINK_WriteReg(R10, 0x00000000)  returns 0x00 (0001ms, 1289ms total)
T07AC 004:296 JLINK_WriteReg(R11, 0x00000000)  returns 0x00 (0000ms, 1289ms total)
T07AC 004:296 JLINK_WriteReg(R12, 0x00000000)  returns 0x00 (0000ms, 1289ms total)
T07AC 004:296 JLINK_WriteReg(R13 (SP), 0x20002000)  returns 0x00 (0000ms, 1289ms total)
T07AC 004:296 JLINK_WriteReg(R14, 0x20000001)  returns 0x00 (0000ms, 1289ms total)
T07AC 004:296 JLINK_WriteReg(R15 (PC), 0x20000028)  returns 0x00 (0001ms, 1290ms total)
T07AC 004:297 JLINK_WriteReg(XPSR, 0x01000000)  returns 0x00 (0000ms, 1290ms total)
T07AC 004:297 JLINK_WriteReg(MSP, 0x20002000)  returns 0x00 (0000ms, 1290ms total)
T07AC 004:297 JLINK_WriteReg(PSP, 0x20002000)  returns 0x00 (0000ms, 1290ms total)
T07AC 004:297 JLINK_WriteReg(CFBP, 0x00000000)  returns 0x00 (0000ms, 1290ms total)
T07AC 004:297 JLINK_SetBPEx(Addr = 0x20000000, Type = 0xFFFFFFF2) -- CPU_ReadMem(2 bytes @ 0x20000000)  returns 0x00000011 (0002ms, 1292ms total)
T07AC 004:299 JLINK_Go() -- CPU_WriteMem(2 bytes @ 0x20000000) -- CPU_ReadMem(4 bytes @ 0xE0001000) (0005ms, 1297ms total)
T07AC 004:304 JLINK_IsHalted() -- CPU_ReadMem(2 bytes @ 0x20000000)  returns TRUE (0008ms, 1305ms total)
T07AC 004:313 JLINK_ReadReg(R15 (PC))  returns 0x20000000 (0000ms, 1297ms total)
T07AC 004:313 JLINK_ClrBPEx(BPHandle = 0x00000011)  returns 0x00 (0000ms, 1297ms total)
T07AC 004:313 JLINK_ReadReg(R0)  returns 0x00000000 (0000ms, 1297ms total)
T07AC 004:313 JLINK_WriteMem(0x200001F4, 0x0E0C Bytes, ...) - Data: 20 54 00 20 8D F4 01 00 95 F4 01 00 97 F4 01 00 ... -- CPU_WriteMem(3596 bytes @ 0x200001F4)  returns 0xE0C (0049ms, 1346ms total)
T07AC 004:362 JLINK_WriteMem(0x20001000, 0x01F4 Bytes, ...) - Data: FA D1 70 47 70 47 00 20 01 E0 01 C1 12 1F 00 2A ... -- CPU_WriteMem(500 bytes @ 0x20001000)  returns 0x1F4 (0008ms, 1354ms total)
T07AC 004:370 JLINK_WriteReg(R0, 0x0001F000)  returns 0x00 (0001ms, 1355ms total)
T07AC 004:371 JLINK_WriteReg(R1, 0x00001000)  returns 0x00 (0000ms, 1355ms total)
T07AC 004:371 JLINK_WriteReg(R2, 0x200001F4)  returns 0x00 (0000ms, 1355ms total)
T07AC 004:371 JLINK_WriteReg(R3, 0x00000000)  returns 0x00 (0001ms, 1356ms total)
T07AC 004:372 JLINK_WriteReg(R4, 0x00000000)  returns 0x00 (0000ms, 1356ms total)
T07AC 004:372 JLINK_WriteReg(R5, 0x00000000)  returns 0x00 (0000ms, 1356ms total)
T07AC 004:372 JLINK_WriteReg(R6, 0x00000000)  returns 0x00 (0000ms, 1356ms total)
T07AC 004:372 JLINK_WriteReg(R7, 0x00000000)  returns 0x00 (0001ms, 1357ms total)
T07AC 004:373 JLINK_WriteReg(R8, 0x00000000)  returns 0x00 (0000ms, 1357ms total)
T07AC 004:373 JLINK_WriteReg(R9, 0x200001F0)  returns 0x00 (0000ms, 1357ms total)
T07AC 004:373 JLINK_WriteReg(R10, 0x00000000)  returns 0x00 (0000ms, 1357ms total)
T07AC 004:374 JLINK_WriteReg(R11, 0x00000000)  returns 0x00 (0000ms, 1358ms total)
T07AC 004:374 JLINK_WriteReg(R12, 0x00000000)  returns 0x00 (0000ms, 1358ms total)
T07AC 004:374 JLINK_WriteReg(R13 (SP), 0x20002000)  returns 0x00 (0000ms, 1358ms total)
T07AC 004:374 JLINK_WriteReg(R14, 0x20000001)  returns 0x00 (0001ms, 1359ms total)
T07AC 004:375 JLINK_WriteReg(R15 (PC), 0x20000192)  returns 0x00 (0000ms, 1359ms total)
T07AC 004:375 JLINK_WriteReg(XPSR, 0x01000000)  returns 0x00 (0000ms, 1359ms total)
T07AC 004:375 JLINK_WriteReg(MSP, 0x20002000)  returns 0x00 (0001ms, 1360ms total)
T07AC 004:376 JLINK_WriteReg(PSP, 0x20002000)  returns 0x00 (0000ms, 1360ms total)
T07AC 004:376 JLINK_WriteReg(CFBP, 0x00000000)  returns 0x00 (0000ms, 1360ms total)
T07AC 004:376 JLINK_SetBPEx(Addr = 0x20000000, Type = 0xFFFFFFF2)  returns 0x00000012 (0000ms, 1360ms total)
T07AC 004:376 JLINK_Go() -- CPU_ReadMem(4 bytes @ 0xE0001000) (0005ms, 1365ms total)
T07AC 004:381 JLINK_IsHalted() -- CPU_ReadMem(2 bytes @ 0x20000000)  returns TRUE (0009ms, 1374ms total)
T07AC 004:390 JLINK_ReadReg(R15 (PC))  returns 0x20000000 (0000ms, 1365ms total)
T07AC 004:390 JLINK_ClrBPEx(BPHandle = 0x00000012)  returns 0x00 (0000ms, 1365ms total)
T07AC 004:390 JLINK_ReadReg(R0)  returns 0x00020000 (0000ms, 1365ms total)
T07AC 004:392 JLINK_WriteMem(0x200001F4, 0x0E0C Bytes, ...) - Data: 38 46 01 F0 47 FE 05 00 C7 D1 38 78 38 B1 33 46 ... -- CPU_WriteMem(3596 bytes @ 0x200001F4)  returns 0xE0C (0049ms, 1415ms total)
T07AC 004:441 JLINK_WriteMem(0x20001000, 0x01F4 Bytes, ...) - Data: 04 E0 4F F4 F0 11 21 60 2E 60 07 70 10 46 BD E8 ... -- CPU_WriteMem(500 bytes @ 0x20001000)  returns 0x1F4 (0008ms, 1423ms total)
T07AC 004:449 JLINK_WriteReg(R0, 0x00020000)  returns 0x00 (0001ms, 1424ms total)
T07AC 004:450 JLINK_WriteReg(R1, 0x00001000)  returns 0x00 (0000ms, 1424ms total)
T07AC 004:450 JLINK_WriteReg(R2, 0x200001F4)  returns 0x00 (0000ms, 1424ms total)
T07AC 004:450 JLINK_WriteReg(R3, 0x00000000)  returns 0x00 (0000ms, 1424ms total)
T07AC 004:450 JLINK_WriteReg(R4, 0x00000000)  returns 0x00 (0000ms, 1424ms total)
T07AC 004:450 JLINK_WriteReg(R5, 0x00000000)  returns 0x00 (0001ms, 1425ms total)
T07AC 004:451 JLINK_WriteReg(R6, 0x00000000)  returns 0x00 (0000ms, 1425ms total)
T07AC 004:451 JLINK_WriteReg(R7, 0x00000000)  returns 0x00 (0000ms, 1425ms total)
T07AC 004:451 JLINK_WriteReg(R8, 0x00000000)  returns 0x00 (0000ms, 1425ms total)
T07AC 004:451 JLINK_WriteReg(R9, 0x200001F0)  returns 0x00 (0000ms, 1425ms total)
T07AC 004:451 JLINK_WriteReg(R10, 0x00000000)  returns 0x00 (0001ms, 1426ms total)
T07AC 004:452 JLINK_WriteReg(R11, 0x00000000)  returns 0x00 (0000ms, 1426ms total)
T07AC 004:452 JLINK_WriteReg(R12, 0x00000000)  returns 0x00 (0000ms, 1426ms total)
T07AC 004:452 JLINK_WriteReg(R13 (SP), 0x20002000)  returns 0x00 (0000ms, 1426ms total)
T07AC 004:452 JLINK_WriteReg(R14, 0x20000001)  returns 0x00 (0000ms, 1426ms total)
T07AC 004:452 JLINK_WriteReg(R15 (PC), 0x20000192)  returns 0x00 (0001ms, 1427ms total)
T07AC 004:453 JLINK_WriteReg(XPSR, 0x01000000)  returns 0x00 (0000ms, 1427ms total)
T07AC 004:453 JLINK_WriteReg(MSP, 0x20002000)  returns 0x00 (0000ms, 1427ms total)
T07AC 004:453 JLINK_WriteReg(PSP, 0x20002000)  returns 0x00 (0000ms, 1427ms total)
T07AC 004:454 JLINK_WriteReg(CFBP, 0x00000000)  returns 0x00 (0000ms, 1428ms total)
T07AC 004:454 JLINK_SetBPEx(Addr = 0x20000000, Type = 0xFFFFFFF2)  returns 0x00000013 (0000ms, 1428ms total)
T07AC 004:454 JLINK_Go() -- CPU_ReadMem(4 bytes @ 0xE0001000) (0005ms, 1433ms total)
T07AC 004:459 JLINK_IsHalted() -- CPU_ReadMem(2 bytes @ 0x20000000)  returns TRUE (0008ms, 1441ms total)
T07AC 004:467 JLINK_ReadReg(R15 (PC))  returns 0x20000000 (0000ms, 1433ms total)
T07AC 004:467 JLINK_ClrBPEx(BPHandle = 0x00000013)  returns 0x00 (0000ms, 1433ms total)
T07AC 004:467 JLINK_ReadReg(R0)  returns 0x00021000 (0001ms, 1434ms total)
T07AC 004:469 JLINK_WriteMem(0x200001F4, 0x0E0C Bytes, ...) - Data: 01 D0 81 42 F3 D8 05 20 E8 55 20 88 12 21 40 1C ... -- CPU_WriteMem(3596 bytes @ 0x200001F4)  returns 0xE0C (0049ms, 1483ms total)
T07AC 004:518 JLINK_WriteMem(0x20001000, 0x01F4 Bytes, ...) - Data: 70 B5 1C 4B 1A 69 9C 68 15 46 11 46 07 E0 81 42 ... -- CPU_WriteMem(500 bytes @ 0x20001000)  returns 0x1F4 (0008ms, 1491ms total)
T07AC 004:526 JLINK_WriteReg(R0, 0x00021000)  returns 0x00 (0000ms, 1491ms total)
T07AC 004:527 JLINK_WriteReg(R1, 0x00001000)  returns 0x00 (0000ms, 1492ms total)
T07AC 004:527 JLINK_WriteReg(R2, 0x200001F4)  returns 0x00 (0000ms, 1492ms total)
T07AC 004:527 JLINK_WriteReg(R3, 0x00000000)  returns 0x00 (0000ms, 1492ms total)
T07AC 004:527 JLINK_WriteReg(R4, 0x00000000)  returns 0x00 (0000ms, 1492ms total)
T07AC 004:527 JLINK_WriteReg(R5, 0x00000000)  returns 0x00 (0000ms, 1492ms total)
T07AC 004:527 JLINK_WriteReg(R6, 0x00000000)  returns 0x00 (0001ms, 1493ms total)
T07AC 004:528 JLINK_WriteReg(R7, 0x00000000)  returns 0x00 (0000ms, 1493ms total)
T07AC 004:528 JLINK_WriteReg(R8, 0x00000000)  returns 0x00 (0000ms, 1493ms total)
T07AC 004:528 JLINK_WriteReg(R9, 0x200001F0)  returns 0x00 (0000ms, 1493ms total)
T07AC 004:528 JLINK_WriteReg(R10, 0x00000000)  returns 0x00 (0000ms, 1493ms total)
T07AC 004:528 JLINK_WriteReg(R11, 0x00000000)  returns 0x00 (0001ms, 1494ms total)
T07AC 004:529 JLINK_WriteReg(R12, 0x00000000)  returns 0x00 (0000ms, 1494ms total)
T07AC 004:529 JLINK_WriteReg(R13 (SP), 0x20002000)  returns 0x00 (0000ms, 1494ms total)
T07AC 004:529 JLINK_WriteReg(R14, 0x20000001)  returns 0x00 (0000ms, 1494ms total)
T07AC 004:529 JLINK_WriteReg(R15 (PC), 0x20000192)  returns 0x00 (0001ms, 1495ms total)
T07AC 004:530 JLINK_WriteReg(XPSR, 0x01000000)  returns 0x00 (0000ms, 1495ms total)
T07AC 004:530 JLINK_WriteReg(MSP, 0x20002000)  returns 0x00 (0000ms, 1495ms total)
T07AC 004:530 JLINK_WriteReg(PSP, 0x20002000)  returns 0x00 (0000ms, 1495ms total)
T07AC 004:530 JLINK_WriteReg(CFBP, 0x00000000)  returns 0x00 (0000ms, 1495ms total)
T07AC 004:530 JLINK_SetBPEx(Addr = 0x20000000, Type = 0xFFFFFFF2)  returns 0x00000014 (0001ms, 1496ms total)
T07AC 004:531 JLINK_Go() -- CPU_ReadMem(4 bytes @ 0xE0001000) (0004ms, 1500ms total)
T07AC 004:535 JLINK_IsHalted() -- CPU_ReadMem(2 bytes @ 0x20000000)  returns TRUE (0008ms, 1508ms total)
T07AC 004:543 JLINK_ReadReg(R15 (PC))  returns 0x20000000 (0000ms, 1500ms total)
T07AC 004:543 JLINK_ClrBPEx(BPHandle = 0x00000014)  returns 0x00 (0000ms, 1500ms total)
T07AC 004:543 JLINK_ReadReg(R0)  returns 0x00022000 (0001ms, 1501ms total)
T07AC 004:545 JLINK_WriteMem(0x200001F4, 0x0E0C Bytes, ...) - Data: 01 B1 88 47 61 69 00 29 03 D0 8D F8 00 50 68 46 ... -- CPU_WriteMem(3596 bytes @ 0x200001F4)  returns 0xE0C (0049ms, 1550ms total)
T07AC 004:594 JLINK_WriteMem(0x20001000, 0x01F4 Bytes, ...) - Data: 00 00 00 00 00 00 00 00 00 00 00 00 00 00 00 00 ... -- CPU_WriteMem(500 bytes @ 0x20001000)  returns 0x1F4 (0008ms, 1558ms total)
T07AC 004:602 JLINK_WriteReg(R0, 0x00022000)  returns 0x00 (0000ms, 1558ms total)
T07AC 004:602 JLINK_WriteReg(R1, 0x0000021C)  returns 0x00 (0001ms, 1559ms total)
T07AC 004:603 JLINK_WriteReg(R2, 0x200001F4)  returns 0x00 (0000ms, 1559ms total)
T07AC 004:603 JLINK_WriteReg(R3, 0x00000000)  returns 0x00 (0000ms, 1559ms total)
T07AC 004:603 JLINK_WriteReg(R4, 0x00000000)  returns 0x00 (0000ms, 1559ms total)
T07AC 004:603 JLINK_WriteReg(R5, 0x00000000)  returns 0x00 (0000ms, 1559ms total)
T07AC 004:603 JLINK_WriteReg(R6, 0x00000000)  returns 0x00 (0001ms, 1560ms total)
T07AC 004:604 JLINK_WriteReg(R7, 0x00000000)  returns 0x00 (0000ms, 1560ms total)
T07AC 004:604 JLINK_WriteReg(R8, 0x00000000)  returns 0x00 (0000ms, 1560ms total)
T07AC 004:604 JLINK_WriteReg(R9, 0x200001F0)  returns 0x00 (0000ms, 1560ms total)
T07AC 004:604 JLINK_WriteReg(R10, 0x00000000)  returns 0x00 (0000ms, 1560ms total)
T07AC 004:604 JLINK_WriteReg(R11, 0x00000000)  returns 0x00 (0001ms, 1561ms total)
T07AC 004:605 JLINK_WriteReg(R12, 0x00000000)  returns 0x00 (0000ms, 1561ms total)
T07AC 004:605 JLINK_WriteReg(R13 (SP), 0x20002000)  returns 0x00 (0000ms, 1561ms total)
T07AC 004:605 JLINK_WriteReg(R14, 0x20000001)  returns 0x00 (0000ms, 1561ms total)
T07AC 004:605 JLINK_WriteReg(R15 (PC), 0x20000192)  returns 0x00 (0000ms, 1561ms total)
T07AC 004:605 JLINK_WriteReg(XPSR, 0x01000000)  returns 0x00 (0000ms, 1561ms total)
T07AC 004:605 JLINK_WriteReg(MSP, 0x20002000)  returns 0x00 (0001ms, 1562ms total)
T07AC 004:606 JLINK_WriteReg(PSP, 0x20002000)  returns 0x00 (0000ms, 1562ms total)
T07AC 004:606 JLINK_WriteReg(CFBP, 0x00000000)  returns 0x00 (0000ms, 1562ms total)
T07AC 004:606 JLINK_SetBPEx(Addr = 0x20000000, Type = 0xFFFFFFF2)  returns 0x00000015 (0000ms, 1562ms total)
T07AC 004:606 JLINK_Go() -- CPU_ReadMem(4 bytes @ 0xE0001000) (0005ms, 1567ms total)
T07AC 004:611 JLINK_IsHalted() -- CPU_ReadMem(2 bytes @ 0x20000000)  returns TRUE (0008ms, 1575ms total)
T07AC 004:619 JLINK_ReadReg(R15 (PC))  returns 0x20000000 (0000ms, 1567ms total)
T07AC 004:619 JLINK_ClrBPEx(BPHandle = 0x00000015)  returns 0x00 (0000ms, 1567ms total)
T07AC 004:619 JLINK_ReadReg(R0)  returns 0x0002221C (0001ms, 1568ms total)
T07AC 004:621 JLINK_WriteReg(R0, 0x00000003)  returns 0x00 (0000ms, 1568ms total)
T07AC 004:621 JLINK_WriteReg(R1, 0x0000021C)  returns 0x00 (0000ms, 1568ms total)
T07AC 004:621 JLINK_WriteReg(R2, 0x200001F4)  returns 0x00 (0001ms, 1569ms total)
T07AC 004:622 JLINK_WriteReg(R3, 0x00000000)  returns 0x00 (0000ms, 1569ms total)
T07AC 004:622 JLINK_WriteReg(R4, 0x00000000)  returns 0x00 (0000ms, 1569ms total)
T07AC 004:622 JLINK_WriteReg(R5, 0x00000000)  returns 0x00 (0000ms, 1569ms total)
T07AC 004:622 JLINK_WriteReg(R6, 0x00000000)  returns 0x00 (0000ms, 1569ms total)
T07AC 004:622 JLINK_WriteReg(R7, 0x00000000)  returns 0x00 (0001ms, 1570ms total)
T07AC 004:623 JLINK_WriteReg(R8, 0x00000000)  returns 0x00 (0000ms, 1570ms total)
T07AC 004:623 JLINK_WriteReg(R9, 0x200001F0)  returns 0x00 (0000ms, 1570ms total)
T07AC 004:623 JLINK_WriteReg(R10, 0x00000000)  returns 0x00 (0000ms, 1570ms total)
T07AC 004:623 JLINK_WriteReg(R11, 0x00000000)  returns 0x00 (0001ms, 1571ms total)
T07AC 004:624 JLINK_WriteReg(R12, 0x00000000)  returns 0x00 (0000ms, 1571ms total)
T07AC 004:624 JLINK_WriteReg(R13 (SP), 0x20002000)  returns 0x00 (0000ms, 1571ms total)
T07AC 004:624 JLINK_WriteReg(R14, 0x20000001)  returns 0x00 (0001ms, 1572ms total)
T07AC 004:625 JLINK_WriteReg(R15 (PC), 0x20000058)  returns 0x00 (0000ms, 1572ms total)
T07AC 004:625 JLINK_WriteReg(XPSR, 0x01000000)  returns 0x00 (0000ms, 1572ms total)
T07AC 004:625 JLINK_WriteReg(MSP, 0x20002000)  returns 0x00 (0000ms, 1572ms total)
T07AC 004:625 JLINK_WriteReg(PSP, 0x20002000)  returns 0x00 (0000ms, 1572ms total)
T07AC 004:625 JLINK_WriteReg(CFBP, 0x00000000)  returns 0x00 (0001ms, 1573ms total)
T07AC 004:626 JLINK_SetBPEx(Addr = 0x20000000, Type = 0xFFFFFFF2)  returns 0x00000016 (0000ms, 1573ms total)
T07AC 004:626 JLINK_Go() -- CPU_ReadMem(4 bytes @ 0xE0001000) (0004ms, 1577ms total)
T07AC 004:630 JLINK_IsHalted() -- CPU_ReadMem(2 bytes @ 0x20000000)  returns TRUE (0009ms, 1586ms total)
T07AC 004:639 JLINK_ReadReg(R15 (PC))  returns 0x20000000 (0000ms, 1577ms total)
T07AC 004:639 JLINK_ClrBPEx(BPHandle = 0x00000016)  returns 0x00 (0000ms, 1577ms total)
T07AC 004:639 JLINK_ReadReg(R0)  returns 0x00000000 (0001ms, 1578ms total)
T07AC 004:700 JLINK_WriteMem(0x20000000, 0x0002 Bytes, ...) - Data: FE E7 -- CPU_WriteMem(2 bytes @ 0x20000000)  returns 0x02 (0001ms, 1579ms total)
T07AC 004:701 JLINK_SetResetType(JLINKARM_RESET_TYPE_NORMAL)  returns JLINKARM_RESET_TYPE_NORMAL (0000ms, 1579ms total)
T07AC 004:701 JLINK_Reset() -- CPU_WriteMem(4 bytes @ 0xE000EDF0) -- CPU_WriteMem(4 bytes @ 0xE000EDFC) >0x35 TIF> -- CPU_WriteMem(4 bytes @ 0xE000ED0C) -- CPU_ReadMem(4 bytes @ 0xE000EDF0) -- CPU_ReadMem(4 bytes @ 0xE000EDF0) -- CPU_WriteMem(4 bytes @ 0xE000EDF0) -- CPU_WriteMem(4 bytes @ 0xE000EDFC) -- CPU is running -- CPU_ReadMem(4 bytes @ 0xE000EDF0) -- CPU_WriteMem(4 bytes @ 0xE0002000) -- CPU_ReadMem(4 bytes @ 0xE000EDFC) -- CPU_ReadMem(4 bytes @ 0xE0001000) (0027ms, 1606ms total)
T07AC 004:729 JLINK_Go() -- CPU_ReadMem(4 bytes @ 0xE0001000) -- CPU_WriteMem(4 bytes @ 0xE0002008) -- CPU_WriteMem(4 bytes @ 0xE000200C) -- CPU_WriteMem(4 bytes @ 0xE0002010) -- CPU_WriteMem(4 bytes @ 0xE0002014) -- CPU_WriteMem(4 bytes @ 0xE0002018) -- CPU_WriteMem(4 bytes @ 0xE000201C) -- CPU_WriteMem(4 bytes @ 0xE0001004) (0006ms, 1613ms total)
T07AC 004:764 JLINK_Close() -- CPU is running -- CPU_WriteMem(4 bytes @ 0xE0002008) -- CPU is running -- CPU_WriteMem(4 bytes @ 0xE000200C) -- CPU is running -- CPU_WriteMem(4 bytes @ 0xE0002010) -- CPU is running -- CPU_WriteMem(4 bytes @ 0xE0002014) -- CPU is running -- CPU_WriteMem(4 bytes @ 0xE0002018) -- CPU is running -- CPU_WriteMem(4 bytes @ 0xE000201C) >0x42 TIF> >0x28 TIF> >0x35 TIF> (0013ms, 1626ms total)
T07AC 004:764  (0013ms, 1626ms total)
T07AC 004:764 Closed (0014ms, 1627ms total)
